module go_sso.configs/mysql

go 1.22.1

require gorm.io/driver/mysql v1.5.6

require (
	github.com/go-sql-driver/mysql v1.7.0 // indirect
	github.com/jinzhu/inflection v1.0.0 // indirect
	github.com/jinzhu/now v1.1.5 // indirect
	gorm.io/gorm v1.25.7 // indirect
)
